Projeto Multimidia:
x
-Jose 
--Joao 
--Marcelo 
--Luis 
---Caio 
---Jeremias
-Marcia 
--Lucas 
---Natanael 
----Roberto 
-----Josue 
-----Gustavo 
--Murilo 
-Donato 
--Ronaldo 
---Sergio 

-------------------------------------------------------

Iniciante - 0 cadastros;
Junior - 2 cadastros;
Supervisor - 5 cadastros;
Sênior - 7 cadastros;
Diretor - 10 cadastros;
Executivo - 15 cadastros;

